// Jest Snapshot v1, https://goo.gl/fbAQLP

exports[`get home 1`] = `
Array [
  "<article>
		<h1><a href=\\"http:&#x2F;&#x2F;example.com\\">Example site</a></h1>
		<p>Description</p>
		<p><a href=\\"/tags/Tag\\">Tag</a></p>
	</article>",
]
`;

exports[`post home 1`] = `
Array [
  "<article>
		<h1><a href=\\"http:&#x2F;&#x2F;example.com\\">Example site</a></h1>
		<p>Description</p>
		<p><a href=\\"/tags/Tag\\">Tag</a></p>
	</article>",
]
`;
